From 01-01 to 07-01:Emilio Pozuelo Monfort <pochu27@gmail.com>
From 08-01 to 14-01:Markus Koschany <markus@koschany.net>
From 15-01 to 21-01:Markus Koschany <markus@koschany.net>
From 22-01 to 28-01:Sylvain Beucler <beuc@beuc.net>
From 29-01 to 04-02:Thorsten Alteholz <squeeze-lts@alteholz.de>
From 05-02 to 11-02:Utkarsh Gupta <guptautkarsh2102@gmail.com>
From 12-02 to 18-02:Chris Lamb <chris@chris-lamb.co.uk>
From 19-02 to 25-02:Emilio Pozuelo Monfort <pochu27@gmail.com>
From 26-02 to 03-03:Markus Koschany <markus@koschany.net>
From 04-03 to 10-03:Ola Lundqvist <ola@inguza.com>
From 11-03 to 17-03:Sylvain Beucler <beuc@beuc.net>
From 18-03 to 24-03:Thorsten Alteholz <squeeze-lts@alteholz.de>
From 25-03 to 31-03:Utkarsh Gupta <guptautkarsh2102@gmail.com>
From 01-04 to 07-04:Chris Lamb <chris@chris-lamb.co.uk>
From 08-04 to 14-04:Emilio Pozuelo Monfort <pochu27@gmail.com>
From 15-04 to 21-04:Markus Koschany <markus@koschany.net>
From 22-04 to 28-04:Ola Lundqvist <ola@inguza.com>
From 29-04 to 05-05:Sylvain Beucler <beuc@beuc.net>
From 06-05 to 12-05:Thorsten Alteholz <squeeze-lts@alteholz.de>
From 13-05 to 19-05:Utkarsh Gupta <guptautkarsh2102@gmail.com>
From 20-05 to 26-05:Chris Lamb <chris@chris-lamb.co.uk>
From 27-05 to 02-06:Emilio Pozuelo Monfort <pochu27@gmail.com>
From 03-06 to 09-06:Markus Koschany <markus@koschany.net>
From 10-06 to 16-06:Ola Lundqvist <ola@inguza.com>
From 17-06 to 23-06:Sylvain Beucler <beuc@beuc.net>
From 24-06 to 30-06:Thorsten Alteholz <squeeze-lts@alteholz.de>
From 01-07 to 07-07:
From 08-07 to 14-07:
From 15-07 to 21-07:
From 22-07 to 28-07:
From 29-07 to 04-08:
From 05-08 to 11-08:
From 12-08 to 18-08:
From 19-08 to 25-08:
From 26-08 to 01-09:
From 02-09 to 08-09:
From 09-09 to 15-09:
From 16-09 to 22-09:
From 23-09 to 29-09:
From 30-09 to 06-10:
From 07-10 to 13-10:
From 14-10 to 20-10:
From 21-10 to 27-10:
From 28-10 to 03-11:
From 04-11 to 10-11:
From 11-11 to 17-11:
From 18-11 to 24-11:
From 25-11 to 01-12:
From 02-12 to 08-12:
From 09-12 to 15-12:
From 16-12 to 22-12:
From 23-12 to 29-12:
From 30-12 to 05-01:
